id,name,model_id:id,group_id:id,perm_read,perm_write,perm_create,perm_unlink
access_applicant_study,applicant_study,model_applicant_study,hr.group_hr_user,1,1,1,1
access_applicant_training,applicant_training,model_applicant_training,hr.group_hr_user,1,1,1,1
access_applicant_work_experience,applicant_work_experience,model_applicant_work_experience,hr.group_hr_user,1,1,1,1
access_hr_job_notices_user,hr_job_notices_user,model_hr_job_notices,hr.group_hr_user,1,1,1,1
access_hr_job_notices_portal,hr_job_notices_portal,model_hr_job_notices,,1,0,0,0
access_perfil_puesto_trabajo_manager,perfil_puesto_trabajo_manager,model_perfil_puesto_trabajo,hr.group_hr_user,1,1,1,1
access_perfil_puesto_trabajo_user,perfil_puesto_trabajo_user,model_perfil_puesto_trabajo,,1,0,0,0
