id,name,model_id:id,group_id:id,perm_read,perm_write,perm_create,perm_unlink

access_asistencia_menor_jefe_ut,asistencia.menor,model_asistencia_menor,base_cuna.jefe_ut,1,0,0,0
access_asistencia_menor_coordinador,asistencia.menor,model_asistencia_menor,base_cuna.coordinador,1,0,0,0
access_asistencia_menor_tec_informatico,asistencia.menor,model_asistencia_menor,base_cuna.tec_informatico,1,1,1,1
access_asistencia_menor_especialista_integrales,asistencia.menor,model_asistencia_menor,base_cuna.especialista_integrales,1,1,1,1
access_asistencia_menor_acompaniante_tecnico,asistencia.menor,model_asistencia_menor,base_cuna.acompaniante_tecnico,1,1,1,1
access_asistencia_menor_especialista_nutricion,asistencia.menor,model_asistencia_menor,base_cuna.especialista_nutricion,1,0,0,0
access_asistencia_menor_servicios_terceros,asistencia.menor,model_asistencia_menor,base_cuna.servicios_terceros,1,0,0,0
access_asistencia_menor_asistente_adm,asistencia.menor,model_asistencia_menor,base_cuna.asistente_adm,1,0,0,0

access_asistencia_control_jefe_ut,asistencia.control,model_asistencia_control,base_cuna.jefe_ut,1,0,0,0
access_asistencia_control_coordinador,asistencia.control,model_asistencia_control,base_cuna.coordinador,1,0,0,0
access_asistencia_control_tec_informatico,asistencia.control,model_asistencia_control,base_cuna.tec_informatico,1,1,1,1
access_asistencia_control_especialista_integrales,asistencia.control,model_asistencia_control,base_cuna.especialista_integrales,1,1,1,1
access_asistencia_control_acompaniante_tecnico,asistencia.control,model_asistencia_control,base_cuna.acompaniante_tecnico,1,1,1,1
access_asistencia_control_especialista_nutricion,asistencia.control,model_asistencia_control,base_cuna.especialista_nutricion,1,0,0,0
access_asistencia_control_servicios_terceros,asistencia.control,model_asistencia_control,base_cuna.servicios_terceros,1,0,0,0
access_asistencia_control_asistente_adm,asistencia.control,model_asistencia_control,base_cuna.asistente_adm,1,0,0,0

access_visita_mensual_jefe_ut,visita.mensual,model_visita_mensual,base_cuna.jefe_ut,1,0,0,0
access_visita_mensual_coordinador,visita.mensual,model_visita_mensual,base_cuna.coordinador,1,0,0,0
access_visita_mensual_tec_informatico,visita.mensual,model_visita_mensual,base_cuna.tec_informatico,1,1,1,1
access_visita_mensual_especialista_integrales,visita.mensual,model_visita_mensual,base_cuna.especialista_integrales,1,1,1,1
access_visita_mensual_acompaniante_tecnico,visita.mensual,model_visita_mensual,base_cuna.acompaniante_tecnico,1,1,1,1
access_visita_mensual_especialista_nutricion,visita.mensual,model_visita_mensual,base_cuna.especialista_nutricion,1,0,0,0
access_visita_mensual_servicios_terceros,visita.mensual,model_visita_mensual,base_cuna.servicios_terceros,1,0,0,0
access_visita_mensual_asistente_adm,visita.mensual,model_visita_mensual,base_cuna.asistente_adm,1,0,0,0

access_requerimiento_lines_jefe_ut,requerimiento.lines,model_requerimiento_lines,base_cuna.jefe_ut,1,0,0,0
access_requerimiento_lines_coordinador,requerimiento.lines,model_requerimiento_lines,base_cuna.coordinador,1,0,0,0
access_requerimiento_lines_tec_informatico,requerimiento.lines,model_requerimiento_lines,base_cuna.tec_informatico,1,0,0,0
access_requerimiento_lines_especialista_integrales,requerimiento.lines,model_requerimiento_lines,base_cuna.especialista_integrales,1,0,0,0
access_requerimiento_lines_acompaniante_tecnico,requerimiento.lines,model_requerimiento_lines,base_cuna.acompaniante_tecnico,1,0,0,0
access_requerimiento_lines_especialista_nutricion,requerimiento.lines,model_requerimiento_lines,base_cuna.especialista_nutricion,1,0,0,0
access_requerimiento_lines_servicios_terceros,requerimiento.lines,model_requerimiento_lines,base_cuna.servicios_terceros,1,0,0,0
access_requerimiento_lines_asistente_adm,requerimiento.lines,model_requerimiento_lines,base_cuna.asistente_adm,1,1,1,1

access_solicitud_requerimiento_wizard_jefe_ut,solicitud.requerimiento.wizard,model_solicitud_requerimiento_wizard,base_cuna.jefe_ut,1,0,0,0
access_solicitud_requerimiento_wizard_coordinador,solicitud.requerimiento.wizard,model_solicitud_requerimiento_wizard,base_cuna.coordinador,1,0,0,0
access_solicitud_requerimiento_wizard_tec_informatico,solicitud.requerimiento.wizard,model_solicitud_requerimiento_wizard,base_cuna.tec_informatico,1,0,0,0
access_solicitud_requerimiento_wizard_especialista_integrales,solicitud.requerimiento.wizard,model_solicitud_requerimiento_wizard,base_cuna.especialista_integrales,1,0,0,0
access_solicitud_requerimiento_wizard_acompaniante_tecnico,solicitud.requerimiento.wizard,model_solicitud_requerimiento_wizard,base_cuna.acompaniante_tecnico,1,0,0,0
access_solicitud_requerimiento_wizard_especialista_nutricion,solicitud.requerimiento.wizard,model_solicitud_requerimiento_wizard,base_cuna.especialista_nutricion,1,0,0,0
access_solicitud_requerimiento_wizard_servicios_terceros,solicitud.requerimiento.wizard,model_solicitud_requerimiento_wizard,base_cuna.servicios_terceros,1,0,0,0
access_solicitud_requerimiento_wizard_asistente_adm,solicitud.requerimiento.wizard,model_solicitud_requerimiento_wizard,base_cuna.asistente_adm,1,1,1,1

access_proceso_justificacion_jefe_ut,proceso.justificacion,model_proceso_justificacion,base_cuna.jefe_ut,1,0,0,0
access_proceso_justificacion_coordinador,proceso.justificacion,model_proceso_justificacion,base_cuna.coordinador,1,0,0,0
access_proceso_justificacion_tec_informatico,proceso.justificacion,model_proceso_justificacion,base_cuna.tec_informatico,1,0,0,0
access_proceso_justificacion_especialista_integrales,proceso.justificacion,model_proceso_justificacion,base_cuna.especialista_integrales,1,0,0,0
access_proceso_justificacion_acompaniante_tecnico,proceso.justificacion,model_proceso_justificacion,base_cuna.acompaniante_tecnico,1,0,0,0
access_proceso_justificacion_especialista_nutricion,proceso.justificacion,model_proceso_justificacion,base_cuna.especialista_nutricion,1,0,0,0
access_proceso_justificacion_servicios_terceros,proceso.justificacion,model_proceso_justificacion,base_cuna.servicios_terceros,1,0,0,0
access_proceso_justificacion_asistente_adm,proceso.justificacion,model_proceso_justificacion,base_cuna.asistente_adm,1,1,1,1

access_justificaciones_lines_jefe_ut,justificaciones.lines,model_justificaciones_lines,base_cuna.jefe_ut,1,0,0,0
access_justificaciones_lines_coordinador,justificaciones.lines,model_justificaciones_lines,base_cuna.coordinador,1,0,0,0
access_justificaciones_lines_tec_informatico,justificaciones.lines,model_justificaciones_lines,base_cuna.tec_informatico,1,0,0,0
access_justificaciones_lines_especialista_integrales,justificaciones.lines,model_justificaciones_lines,base_cuna.especialista_integrales,1,0,0,0
access_justificaciones_lines_acompaniante_tecnico,justificaciones.lines,model_justificaciones_lines,base_cuna.acompaniante_tecnico,1,0,0,0
access_justificaciones_lines_especialista_nutricion,justificaciones.lines,model_justificaciones_lines,base_cuna.especialista_nutricion,1,0,0,0
access_justificaciones_lines_servicios_terceros,justificaciones.lines,model_justificaciones_lines,base_cuna.servicios_terceros,1,0,0,0
access_justificaciones_lines_asistente_adm,justificaciones.lines,model_justificaciones_lines,base_cuna.asistente_adm,1,1,1,1

access_justificacion_actor_jefe_ut,justificaciones.actor,model_justificacion_actor,base_cuna.jefe_ut,1,0,0,0
access_justificacion_actor_coordinador,justificaciones.actor,model_justificacion_actor,base_cuna.coordinador,1,0,0,0
access_justificacion_actor_tec_informatico,justificaciones.actor,model_justificacion_actor,base_cuna.tec_informatico,1,0,0,0
access_justificacion_actor_especialista_integrales,justificaciones.actor,model_justificacion_actor,base_cuna.especialista_integrales,1,0,0,0
access_justificacion_actor_acompaniante_tecnico,justificaciones.actor,model_justificacion_actor,base_cuna.acompaniante_tecnico,1,0,0,0
access_justificacion_actor_especialista_nutricion,justificaciones.actor,model_justificacion_actor,base_cuna.especialista_nutricion,1,0,0,0
access_justificacion_actor_servicios_terceros,justificaciones.actor,model_justificacion_actor,base_cuna.servicios_terceros,1,0,0,0
access_justificacion_actor_asistente_adm,justificaciones.actor,model_justificacion_actor,base_cuna.asistente_adm,1,1,1,1

access_justificacion_actor_lines_jefe_ut,justificaciones.actor.lines,model_justificacion_actor_lines,base_cuna.jefe_ut,1,0,0,0
access_justificacion_actor_lines_coordinador,justificaciones.actor.lines,model_justificacion_actor_lines,base_cuna.coordinador,1,0,0,0
access_justificacion_actor_lines_tec_informatico,justificaciones.actor.lines,model_justificacion_actor_lines,base_cuna.tec_informatico,1,0,0,0
access_justificacion_actor_lines_especialista_integrales,justificaciones.actor.lines,model_justificacion_actor_lines,base_cuna.especialista_integrales,1,0,0,0
access_justificacion_actor_lines_acompaniante_tecnico,justificaciones.actor.lines,model_justificacion_actor_lines,base_cuna.acompaniante_tecnico,1,0,0,0
access_justificacion_actor_lines_especialista_nutricion,justificaciones.actor.lines,model_justificacion_actor_lines,base_cuna.especialista_nutricion,1,0,0,0
access_justificacion_actor_lines_servicios_terceros,justificaciones.actor.lines,model_justificacion_actor_lines,base_cuna.servicios_terceros,1,0,0,0
access_justificacion_actor_lines_asistente_adm,justificaciones.actor.lines,model_justificacion_actor_lines,base_cuna.asistente_adm,1,1,1,1

access_justificacion_gastos_jefe_ut,justificaciones.gastos,model_justificacion_gastos,base_cuna.jefe_ut,1,0,0,0
access_justificacion_gastos_coordinador,justificaciones.gastos,model_justificacion_gastos,base_cuna.coordinador,1,0,0,0
access_justificacion_gastos_tec_informatico,justificaciones.gastos,model_justificacion_gastos,base_cuna.tec_informatico,1,0,0,0
access_justificacion_gastos_especialista_integrales,justificaciones.gastos,model_justificacion_gastos,base_cuna.especialista_integrales,1,0,0,0
access_justificacion_gastos_acompaniante_tecnico,justificaciones.gastos,model_justificacion_gastos,base_cuna.acompaniante_tecnico,1,0,0,0
access_justificacion_gastos_especialista_nutricion,justificaciones.gastos,model_justificacion_gastos,base_cuna.especialista_nutricion,1,0,0,0
access_justificacion_gastos_servicios_terceros,justificaciones.gastos,model_justificacion_gastos,base_cuna.servicios_terceros,1,0,0,0
access_justificacion_gastos_asistente_adm,justificaciones.gastos,model_justificacion_gastos,base_cuna.asistente_adm,1,1,1,1

access_formato_desembolso_jefe_ut,formato.desembolso,model_formato_desembolso,base_cuna.jefe_ut,1,0,0,0
access_formato_desembolso_coordinador,formato.desembolso,model_formato_desembolso,base_cuna.coordinador,1,0,0,0
access_formato_desembolso_tec_informatico,formato.desembolso,model_formato_desembolso,base_cuna.tec_informatico,1,0,0,0
access_formato_desembolso_especialista_integrales,formato.desembolso,model_formato_desembolso,base_cuna.especialista_integrales,1,0,0,0
access_formato_desembolso_acompaniante_tecnico,formato.desembolso,model_formato_desembolso,base_cuna.acompaniante_tecnico,1,0,0,0
access_formato_desembolso_especialista_nutricion,formato.desembolso,model_formato_desembolso,base_cuna.especialista_nutricion,1,0,0,0
access_formato_desembolso_servicios_terceros,formato.desembolso,model_formato_desembolso,base_cuna.servicios_terceros,1,0,0,0
access_formato_desembolso_asistente_adm,formato.desembolso,model_formato_desembolso,base_cuna.asistente_adm,1,1,1,1

access_escala_gastos_jefe_ut,escala.gastos,model_escala_gastos,base_cuna.jefe_ut,1,0,0,0
access_escala_gastos_coordinador,escala.gastos,model_escala_gastos,base_cuna.coordinador,1,0,0,0
access_escala_gastos_tec_informatico,escala.gastos,model_escala_gastos,base_cuna.tec_informatico,1,0,0,0
access_escala_gastos_especialista_integrales,escala.gastos,model_escala_gastos,base_cuna.especialista_integrales,1,0,0,0
access_escala_gastos_acompaniante_tecnico,escala.gastos,model_escala_gastos,base_cuna.acompaniante_tecnico,1,0,0,0
access_escala_gastos_especialista_nutricion,escala.gastos,model_escala_gastos,base_cuna.especialista_nutricion,1,0,0,0
access_escala_gastos_servicios_terceros,escala.gastos,model_escala_gastos,base_cuna.servicios_terceros,1,0,0,0
access_escala_gastos_asistente_adm,escala.gastos,model_escala_gastos,base_cuna.asistente_adm,1,1,1,1

access_nivel_escala_jefe_ut,nivel.escala,model_nivel_escala,base_cuna.jefe_ut,1,0,0,0
access_nivel_escala_coordinador,nivel.escala,model_nivel_escala,base_cuna.coordinador,1,0,0,0
access_nivel_escala_tec_informatico,nivel.escala,model_nivel_escala,base_cuna.tec_informatico,1,0,0,0
access_nivel_escala_especialista_integrales,nivel.escala,model_nivel_escala,base_cuna.especialista_integrales,1,0,0,0
access_nivel_escala_acompaniante_tecnico,nivel.escala,model_nivel_escala,base_cuna.acompaniante_tecnico,1,0,0,0
access_nivel_escala_especialista_nutricion,nivel.escala,model_nivel_escala,base_cuna.especialista_nutricion,1,0,0,0
access_nivel_escala_servicios_terceros,nivel.escala,model_nivel_escala,base_cuna.servicios_terceros,1,0,0,0
access_nivel_escala_asistente_adm,nivel.escala,model_nivel_escala,base_cuna.asistente_adm,1,1,1,1

access_escala_subvencion_jefe_ut,escala.subvencion,model_escala_subvencion,base_cuna.jefe_ut,1,0,0,0
access_escala_subvencion_coordinador,escala.subvencion,model_escala_subvencion,base_cuna.coordinador,1,0,0,0
access_escala_subvencion_tec_informatico,escala.subvencion,model_escala_subvencion,base_cuna.tec_informatico,1,0,0,0
access_escala_subvencion_especialista_integrales,escala.subvencion,model_escala_subvencion,base_cuna.especialista_integrales,1,0,0,0
access_escala_subvencion_acompaniante_tecnico,escala.subvencion,model_escala_subvencion,base_cuna.acompaniante_tecnico,1,0,0,0
access_escala_subvencion_especialista_nutricion,escala.subvencion,model_escala_subvencion,base_cuna.especialista_nutricion,1,0,0,0
access_escala_subvencion_servicios_terceros,escala.subvencion,model_escala_subvencion,base_cuna.servicios_terceros,1,0,0,0
access_escala_subvencion_asistente_adm,escala.subvencion,model_escala_subvencion,base_cuna.asistente_adm,1,1,1,1

access_periodo_saldo_jefe_ut,periodo.saldo,model_periodo_saldo,base_cuna.jefe_ut,1,0,0,0
access_periodo_saldo_coordinador,periodo.saldo,model_periodo_saldo,base_cuna.coordinador,1,0,0,0
access_periodo_saldo_tec_informatico,periodo.saldo,model_periodo_saldo,base_cuna.tec_informatico,1,0,0,0
access_periodo_saldo_especialista_integrales,periodo.saldo,model_periodo_saldo,base_cuna.especialista_integrales,1,0,0,0
access_periodo_saldo_acompaniante_tecnico,periodo.saldo,model_periodo_saldo,base_cuna.acompaniante_tecnico,1,0,0,0
access_periodo_saldo_especialista_nutricion,periodo.saldo,model_periodo_saldo,base_cuna.especialista_nutricion,1,0,0,0
access_periodo_saldo_servicios_terceros,periodo.saldo,model_periodo_saldo,base_cuna.servicios_terceros,1,0,0,0
access_periodo_saldo_asistente_adm,periodo.saldo,model_periodo_saldo,base_cuna.asistente_adm,1,1,1,1

access_periodo_saldo_comite_jefe_ut,periodo.saldocomite,model_periodo_saldocomite,base_cuna.jefe_ut,1,0,0,0
access_periodo_saldo_comite_coordinador,periodo.saldocomite,model_periodo_saldocomite,base_cuna.coordinador,1,0,0,0
access_periodo_saldo_comite_tec_informatico,periodo.saldocomite,model_periodo_saldocomite,base_cuna.tec_informatico,1,0,0,0
access_periodo_saldo_comite_especialista_integrales,periodo.saldocomite,model_periodo_saldocomite,base_cuna.especialista_integrales,1,0,0,0
access_periodo_saldo_comite_acompaniante_tecnico,periodo.saldocomite,model_periodo_saldocomite,base_cuna.acompaniante_tecnico,1,0,0,0
access_periodo_saldo_comite_especialista_nutricion,periodo.saldocomite,model_periodo_saldocomite,base_cuna.especialista_nutricion,1,0,0,0
access_periodo_saldo_comite_servicios_terceros,periodo.saldocomite,model_periodo_saldocomite,base_cuna.servicios_terceros,1,0,0,0
access_periodo_saldo_comite_asistente_adm,periodo.saldocomite,model_periodo_saldocomite,base_cuna.asistente_adm,1,1,1,1

access_coeficiente_atencion_jefe_ut,coeficiente.atencion,model_coeficiente_atencion,base_cuna.jefe_ut,1,0,0,0
access_coeficiente_atencion_coordinador,coeficiente.atencion,model_coeficiente_atencion,base_cuna.coordinador,1,0,0,0
access_coeficiente_atencion_tec_informatico,coeficiente.atencion,model_coeficiente_atencion,base_cuna.tec_informatico,1,0,0,0
access_coeficiente_atencion_especialista_integrales,coeficiente.atencion,model_coeficiente_atencion,base_cuna.especialista_integrales,1,0,0,0
access_coeficiente_atencion_acompaniante_tecnico,coeficiente.atencion,model_coeficiente_atencion,base_cuna.acompaniante_tecnico,1,0,0,0
access_coeficiente_atencion_especialista_nutricion,coeficiente.atencion,model_coeficiente_atencion,base_cuna.especialista_nutricion,1,0,0,0
access_coeficiente_atencion_servicios_terceros,coeficiente.atencion,model_coeficiente_atencion,base_cuna.servicios_terceros,1,0,0,0
access_coeficiente_atencion_asistente_adm,coeficiente.atencion,model_coeficiente_atencion,base_cuna.asistente_adm,1,1,1,1

access_coeficiente_atencion_lineas_jefe_ut,coeficiente.atencion.lineas,model_coeficiente_atencion_lineas,base_cuna.jefe_ut,1,0,0,0
access_coeficiente_atencion_lineas_coordinador,coeficiente.atencion.lineas,model_coeficiente_atencion_lineas,base_cuna.coordinador,1,0,0,0
access_coeficiente_atencion_lineas_tec_informatico,coeficiente.atencion.lineas,model_coeficiente_atencion_lineas,base_cuna.tec_informatico,1,0,0,0
access_coeficiente_atencion_lineas_especialista_integrales,coeficiente.atencion.lineas,model_coeficiente_atencion_lineas,base_cuna.especialista_integrales,1,0,0,0
access_coeficiente_atencion_lineas_acompaniante_tecnico,coeficiente.atencion.lineas,model_coeficiente_atencion_lineas,base_cuna.acompaniante_tecnico,1,0,0,0
access_coeficiente_atencion_lineas_especialista_nutricion,coeficiente.atencion.lineas,model_coeficiente_atencion_lineas,base_cuna.especialista_nutricion,1,0,0,0
access_coeficiente_atencion_lineas_servicios_terceros,coeficiente.atencion.lineas,model_coeficiente_atencion_lineas,base_cuna.servicios_terceros,1,0,0,0
access_coeficiente_atencion_lineas_asistente_adm,coeficiente.atencion.lineas,model_coeficiente_atencion_lineas,base_cuna.asistente_adm,1,1,1,1
