id,name,model_id:id,group_id:id,perm_read,perm_write,perm_create,perm_unlink
access_pncm_ambito_intervencion_user,pncm.ambito.intervencion,model_pncm_ambito_intervencion,base.group_user,1,1,0,0
access_pncm_ambito_intervencion_admin,pncm.ambito.intervencion,model_pncm_ambito_intervencion,hr.group_hr_manager,1,0,0,0
